<?xml version="1.0" encoding="utf-8"?>
<!-- Generator: Adobe Illustrator 16.0.0, SVG Export Plug-In . SVG Version: 6.00 Build 0)  -->
<!DOCTYPE svg PUBLIC "-//W3C//DTD SVG 1.1//EN" "http://www.w3.org/Graphics/SVG/1.1/DTD/svg11.dtd">
<svg version="1.1" id="Vrstva_1" xmlns="http://www.w3.org/2000/svg" xmlns:xlink="http://www.w3.org/1999/xlink" x="0px" y="0px"
	 width="42px" height="57px" viewBox="0 0 42 57" enable-background="new 0 0 42 57" xml:space="preserve">
<g>
	<g>
		<path fill="#FFFFFF" d="M41.139,20.25l-2.953-3.865l0.631-4.826c0.072-0.553-0.234-1.084-0.748-1.298l-4.49-1.861l-1.859-4.497
			c-0.213-0.515-0.742-0.822-1.295-0.75l-4.818,0.632l-3.858-2.958c-0.441-0.338-1.054-0.338-1.495,0l-3.858,2.958l-4.818-0.632
			c-0.551-0.072-1.083,0.235-1.296,0.75L8.422,8.399l-4.49,1.861c-0.514,0.214-0.821,0.745-0.749,1.298l0.63,4.826L0.861,20.25
			c-0.337,0.441-0.337,1.055,0,1.497l2.953,3.864l-0.63,4.826c-0.072,0.553,0.235,1.085,0.749,1.298l4.49,1.861l1.858,4.497
			c0.165,0.399,0.521,0.673,0.929,0.742v16.358c0,0.449,0.244,0.863,0.637,1.08c0.393,0.216,0.873,0.201,1.251-0.04L21,51.215
			l7.902,5.02c0.201,0.128,0.43,0.192,0.658,0.192c0.205,0,0.408-0.051,0.594-0.152c0.393-0.217,0.637-0.631,0.637-1.08V38.836
			c0.408-0.07,0.764-0.344,0.928-0.742l1.859-4.496l4.49-1.862c0.514-0.213,0.82-0.745,0.748-1.298l-0.631-4.826l2.953-3.864
			C41.477,21.306,41.477,20.691,41.139,20.25z M28.332,52.955l-6.673-4.239c-0.402-0.256-0.916-0.256-1.317,0l-6.673,4.239V38.569
			l2.726-0.357l3.858,2.958c0.221,0.17,0.484,0.254,0.748,0.254c0.263,0,0.527-0.084,0.747-0.254l3.859-2.958l2.727,0.357V52.955z
			 M35.924,24.519c-0.197,0.258-0.285,0.585-0.242,0.908l0.574,4.394l-4.09,1.696c-0.301,0.125-0.541,0.365-0.666,0.667
			l-1.691,4.096l-4.389-0.576c-0.322-0.041-0.648,0.046-0.906,0.243L21,38.641l-3.514-2.694c-0.216-0.165-0.479-0.253-0.748-0.253
			c-0.053,0-0.106,0.003-0.16,0.01l-4.387,0.576l-1.692-4.096c-0.125-0.303-0.365-0.542-0.666-0.667L5.744,29.82l0.574-4.394
			c0.042-0.323-0.045-0.65-0.243-0.909l-2.69-3.52l2.69-3.52c0.198-0.259,0.285-0.586,0.243-0.909l-0.574-4.394l4.089-1.695
			c0.301-0.126,0.541-0.365,0.666-0.668l1.693-4.095l4.387,0.575c0.323,0.042,0.649-0.045,0.907-0.243L21,3.355l3.514,2.694
			c0.258,0.198,0.584,0.285,0.908,0.243l4.387-0.575L31.5,9.813c0.125,0.303,0.365,0.542,0.666,0.668l4.09,1.695l-0.574,4.394
			c-0.043,0.323,0.045,0.65,0.242,0.909l2.689,3.52L35.924,24.519z M13.489,13.052c0.275,0,0.551-0.092,0.78-0.279
			c1.89-1.555,4.281-2.41,6.731-2.41c0.679,0,1.23-0.552,1.23-1.231c0-0.681-0.551-1.231-1.23-1.231
			c-3.018,0-5.963,1.054-8.292,2.969c-0.525,0.432-0.601,1.208-0.17,1.733C12.781,12.898,13.134,13.052,13.489,13.052z
			 M25.385,8.653c-0.641-0.228-1.344,0.107-1.57,0.748c-0.229,0.641,0.105,1.345,0.746,1.573c4.221,1.505,7.059,5.533,7.059,10.023
			c0,5.864-4.764,10.636-10.619,10.636c-5.855,0-10.619-4.771-10.619-10.636c0-2.086,0.603-4.105,1.742-5.84
			c0.374-0.568,0.216-1.332-0.351-1.706c-0.567-0.374-1.33-0.217-1.703,0.352c-1.405,2.138-2.147,4.626-2.147,7.194
			c0,7.224,5.867,13.099,13.078,13.099s13.078-5.875,13.078-13.099C34.078,15.468,30.584,10.507,25.385,8.653z"/>
	</g>
</g>
</svg>
