<?xml version="1.0" encoding="utf-8"?>
<!-- Generator: Adobe Illustrator 16.0.0, SVG Export Plug-In . SVG Version: 6.00 Build 0)  -->
<!DOCTYPE svg PUBLIC "-//W3C//DTD SVG 1.1//EN" "http://www.w3.org/Graphics/SVG/1.1/DTD/svg11.dtd">
<svg version="1.1" id="Vrstva_1" xmlns="http://www.w3.org/2000/svg" xmlns:xlink="http://www.w3.org/1999/xlink" x="0px" y="0px"
	 width="20px" height="18px" viewBox="0 0 20 18" enable-background="new 0 0 20 18" xml:space="preserve">
<path fill="#262D22" d="M19.374,0.312c-0.085-0.074-0.204-0.091-0.307-0.044L0.694,8.799C0.595,8.845,0.531,8.943,0.53,9.052
	C0.529,9.161,0.59,9.261,0.688,9.31l5.2,2.55c0.095,0.047,0.209,0.037,0.294-0.027l5.056-3.776l-3.969,4.08
	c-0.057,0.059-0.086,0.138-0.079,0.219l0.395,5.144c0.009,0.113,0.086,0.211,0.194,0.247c0.029,0.009,0.059,0.014,0.088,0.014
	c0.081,0,0.16-0.034,0.215-0.098l2.76-3.196l3.413,1.629c0.073,0.035,0.159,0.037,0.234,0.004c0.075-0.032,0.133-0.096,0.157-0.174
	l4.812-15.315C19.491,0.502,19.458,0.385,19.374,0.312z"/>
</svg>
