<?xml version="1.0" encoding="utf-8"?>
<!-- Generator: Adobe Illustrator 16.0.0, SVG Export Plug-In . SVG Version: 6.00 Build 0)  -->
<!DOCTYPE svg PUBLIC "-//W3C//DTD SVG 1.1//EN" "http://www.w3.org/Graphics/SVG/1.1/DTD/svg11.dtd">
<svg version="1.1" id="Vrstva_1" xmlns="http://www.w3.org/2000/svg" xmlns:xlink="http://www.w3.org/1999/xlink" x="0px" y="0px"
	 width="14px" height="21px" viewBox="0 0 14 21" enable-background="new 0 0 14 21" xml:space="preserve">
<path fill="#262D22" d="M11.404,0.433H2.596c-1.038,0-1.888,0.85-1.888,1.888V18.68c0,1.038,0.85,1.888,1.888,1.888h8.809
	c1.038,0,1.888-0.85,1.888-1.888V2.32C13.292,1.282,12.442,0.433,11.404,0.433z M4.483,1.376h5.033v0.629H4.483V1.376z M7,19.309
	c-0.694,0-1.258-0.563-1.258-1.258S6.306,16.793,7,16.793c0.695,0,1.259,0.563,1.259,1.258S7.695,19.309,7,19.309z M12.034,15.534
	H1.967V2.95h10.067V15.534z"/>
</svg>
