<?xml version="1.0" encoding="utf-8"?>
<!-- Generator: Adobe Illustrator 16.0.0, SVG Export Plug-In . SVG Version: 6.00 Build 0)  -->
<!DOCTYPE svg PUBLIC "-//W3C//DTD SVG 1.1//EN" "http://www.w3.org/Graphics/SVG/1.1/DTD/svg11.dtd">
<svg version="1.1" id="Vrstva_1" xmlns="http://www.w3.org/2000/svg" xmlns:xlink="http://www.w3.org/1999/xlink" x="0px" y="0px"
	 width="22px" height="20px" viewBox="0 0 22 20" enable-background="new 0 0 22 20" xml:space="preserve">
<g>
	<g>
		<path d="M21.431,0.232c-0.133-0.132-0.329-0.173-0.504-0.105L1.282,7.701C0.826,7.877,0.503,8.289,0.439,8.775
			c-0.064,0.486,0.142,0.969,0.536,1.257l4.316,3.16L20.622,1.059L7.066,14.493l5.901,4.319c0.376,0.274,0.859,0.356,1.306,0.221
			c0.445-0.137,0.801-0.477,0.96-0.915l6.312-17.38C21.608,0.562,21.563,0.364,21.431,0.232z M4.303,14.443l0.838,4.608
			c0.063,0.342,0.29,0.629,0.606,0.768c0.316,0.138,0.682,0.108,0.972-0.08c1.167-0.757,2.69-1.762,2.649-1.82l-5.102-3.677
			L4.303,14.443z"/>
	</g>
</g>
</svg>
