<?xml version="1.0" encoding="utf-8"?>
<!-- Generator: Adobe Illustrator 16.0.0, SVG Export Plug-In . SVG Version: 6.00 Build 0)  -->
<!DOCTYPE svg PUBLIC "-//W3C//DTD SVG 1.1//EN" "http://www.w3.org/Graphics/SVG/1.1/DTD/svg11.dtd">
<svg version="1.1" id="Vrstva_1" xmlns="http://www.w3.org/2000/svg" xmlns:xlink="http://www.w3.org/1999/xlink" x="0px" y="0px"
	 width="41px" height="48px" viewBox="0 0 41 48" enable-background="new 0 0 41 48" xml:space="preserve">
<path fill="#FFFFFF" d="M38.641,38.968v-7.272c0-1.563-1.268-2.83-2.831-2.83H35.07V2.313c0-0.237-0.119-0.46-0.317-0.59
	l-1.797-1.188c-0.471-0.311-1.098,0.026-1.098,0.59v8.528l-0.535-1.444c-0.721-1.941-2.572-3.23-4.645-3.23H14.31
	c-2.083,0-3.944,1.304-4.655,3.262L9.142,9.654V1.125c0-0.563-0.627-0.9-1.098-0.59L6.247,1.723C6.049,1.853,5.93,2.076,5.93,2.313
	v26.552H5.19c-1.563,0-2.831,1.267-2.831,2.83v7.272H1.154c-0.392,0-0.708,0.317-0.708,0.708v3.91c0,0.391,0.316,0.707,0.708,0.707
	h3.052v1.875c0,0.781,0.634,1.415,1.415,1.415h3.75c0.782,0,1.415-0.634,1.415-1.415v-1.875h19.428v1.875
	c0,0.781,0.633,1.415,1.415,1.415h3.749c0.782,0,1.416-0.634,1.416-1.415v-1.875h3.052c0.392,0,0.708-0.316,0.708-0.707v-3.91
	c0-0.391-0.316-0.708-0.708-0.708H38.641L38.641,38.968z M10.079,13.593h20.842v6.971H10.079V13.593z M9.595,36.988H7.177
	c-0.738,0-1.337-0.599-1.337-1.337v-0.033c0-0.739,0.599-1.337,1.337-1.337h2.418c0.738,0,1.337,0.598,1.337,1.337v0.033
	C10.932,36.39,10.333,36.988,9.595,36.988z M25.31,37.383h-9.62c-0.781,0-1.415-0.634-1.415-1.415v-8.964
	c0-0.781,0.634-1.415,1.415-1.415h9.62c0.782,0,1.416,0.634,1.416,1.415v8.964C26.726,36.749,26.092,37.383,25.31,37.383z
	 M33.823,36.988h-2.418c-0.738,0-1.337-0.599-1.337-1.337v-0.033c0-0.739,0.599-1.337,1.337-1.337h2.418
	c0.738,0,1.337,0.598,1.337,1.337v0.033C35.16,36.39,34.562,36.988,33.823,36.988z M25.095,30.767h-9.213
	c-0.387,0-0.7-0.313-0.7-0.7v-0.015c0-0.386,0.313-0.7,0.7-0.7h9.213c0.387,0,0.701,0.314,0.701,0.7v0.015
	C25.796,30.453,25.481,30.767,25.095,30.767z M25.095,27.938h-9.213c-0.387,0-0.7-0.313-0.7-0.701v-0.014c0-0.387,0.313-0.7,0.7-0.7
	h9.213c0.387,0,0.701,0.313,0.701,0.7v0.014C25.796,27.624,25.481,27.938,25.095,27.938z M25.095,36.426h-9.213
	c-0.387,0-0.7-0.313-0.7-0.7v-0.015c0-0.387,0.313-0.7,0.7-0.7h9.213c0.387,0,0.701,0.313,0.701,0.7v0.015
	C25.796,36.112,25.481,36.426,25.095,36.426z M25.095,33.596h-9.213c-0.387,0-0.7-0.313-0.7-0.699v-0.015c0-0.387,0.313-0.7,0.7-0.7
	h9.213c0.387,0,0.701,0.313,0.701,0.7v0.015C25.796,33.283,25.481,33.596,25.095,33.596z"/>
</svg>
